{
  "type": "service_account",
  "project_id": "volunteervision-production",
  "private_key_id": "ee32743e0f8a14ff34ae700caf387cc599f3e708",
  "private_key": "-----BEGIN PRIVATE KEY-----\nMIIEvAIBADANBgkqhkiG9w0BAQEFAASCBKYwggSiAgEAAoIBAQDJgAmrCe9DFUKU\nKVegJOKg2HPvctNG6xq+QGQRL0xgLHKDzjJsubx1E7yLJmH859dOA3vWUakrlz/z\n9ad/eNNhOx+x+uuNXr3ZW7hU/svwV5hkGeopyQ+yJ5j+PRIqNielKuBeBXpOBTQb\n709JZS2WKS01AFHBETCYj3qzl12JJGynB/HhK+YSgwCIt9e7cCjl35VbwzVpvi/5\nvnHDmfN6EsJH9sbQe3phhmGgyxgIEAPfmaB+QJpP9H2sGmA8o8Ms0AqwV0FFCAqB\nDfjGEwusWhYwZt0MNGXFWbGIULePLJcsKP/+QGxyHT5+c0ZcESXfdToDOldkSM+0\nfkE/D87rAgMBAAECggEAHGpb8qzR+unSm8ZAvyq0cu5TWx8cQFIDUXUPJ4U+Bgn+\nlCvN3JtMwk3oNs9Q3jNrn2rKWezmKGmJ8UNhPY6ycHHABH9YHHWR3Ecc9Y+A/wG7\nUdJ9vSrHdd4zqxa9qwo8CQTE4z1ug/Yj5RSYX8dO6HAiGelTniBoc/s32H+uBxrF\narIDMIqVT569lSSINZB0+tVw1Qeywr2JyGqUw8kVwPI+HFnD7n17g0zD/FtjyOrc\ni8BL/7oK7mRzbVbb8hoDZ9n86sLHpdg27Kl9uDpfjOUSgSiESDaPXtuzDksERFGV\n4ZFnvYtk2UZ5XOcSNWiOEOmxFAD5q+UPQb0unOLx0QKBgQD97q3D7YKqqZdf/2OH\nLrKsdQ8uQ9eD7eHaUTrB7FadLj4lk5/5W9t16DoNkkz9kTyg7fHb1xV8lWhFDtR3\nVs9d9qpM8cT25x8b1MSeI6IhjM7xHsx1K9/bWFtaBh6p2kjVeEMlIp7Gz9UXRNsW\nRbrfhU4JXsl6S3n8o041XevSTQKBgQDLJBByPmalcDtQNfNF6RKCRvnZwcKXxDQu\n73iE10RnBqMOT9kmMrdXKcrhSywNml/IeU4HPgT7s5Wk3s1vqFZuWyvCJ9akUWS6\ndm1MLuApk1276iFt5QQOn+A0/rsmtce4FjIoqudwbpzzqmAXzyC34UdSY5Edcl5G\n1FjdrLCSFwKBgFX3dtZs0x7J2ViDkoNSeOTPoHsONqkQYLTTaSv7wfrmi92W08LM\nqUiKfRTZIb16bOcihw3hDAIoZqtycNWSCxQJjPANrZvU9QAsEQBkmd/31ptkzN0i\nJGAS0qJwjfL81kmGtFyfEtfFxqNhCTbKFpDThW7Aqz7+zGaONsz0ZgDFAoGAD2PD\nDzSlCCGRjMkZjhFTQqVn5lRkjqThozCnO8EnQHrjPYFVHSy4cRUMdrcANmOcoA54\nl9nd/MelLaFnhO8G5UNo9EOaYkZ8UBgKvbvLZbrxXfwl3jJ8dTMthDZMLWmWIN8l\nm6ke8YifwWIF96fMfcHGanp6kvWIKOuLc/fSRK8CgYAKwtSobqnGe8m/oyMzl/jO\npAVdmPOMTRq1hHok1WiCrNIsdIqZn1dwFnmaDjGbmmDJjJhNB2itzlPYmsyVQumd\neZkoFjQ+A7xQivoxvW40GjPKAs1Jcw6MuzgLzn+br0cnRO7x67uxp8qpj2ycT1hx\nQF2n3gzm7Rw54XEuWG5FxQ==\n-----END PRIVATE KEY-----\n",
  "client_email": "firebase-adminsdk-smgc0@volunteervision-production.iam.gserviceaccount.com",
  "client_id": "110004916847696665240",
  "auth_uri": "https://accounts.google.com/o/oauth2/auth",
  "token_uri": "https://oauth2.googleapis.com/token",
  "auth_provider_x509_cert_url": "https://www.googleapis.com/oauth2/v1/certs",
  "client_x509_cert_url": "https://www.googleapis.com/robot/v1/metadata/x509/firebase-adminsdk-smgc0%40volunteervision-production.iam.gserviceaccount.com"
}
